Ploting your MTB track with R
…
# lets see the final format
print(track)

## # A tibble: 10,950 x 8
##    dt                    lat   lon   alt   dist  hbpm tm.prev.s tm.cum.min
##    <dttm>              <dbl> <dbl> <dbl>  <dbl> <int>     <dbl>      <dbl>
##  1 2018-01-06 10:34:08 -22.7 -46.8   684 0        111      0         0    
##  2 2018-01-06 10:34:12 -22.7 -46.8   684 0.0200   111      4.00      0.100
##  3 2018-01-06 10:34:13 -22.7 -46.8   683 0.0500   111      1.00      0.100
##  4 2018-01-06 10:34:14 -22.7 -46.8   684 0.110    111      1.00      0.100
##  5 2018-01-06 10:34:15 -22.7 -46.8   684 0.790    111      1.00      0.100
##  6 2018-01-06 10:34:16 -22.7 -46.8   684 2.37     111      1.00      0.100
##  7 2018-01-06 10:34:17 -22.7 -46.8   685 4.08     111      1.00      0.200
##  8 2018-01-06 10:34:18 -22.7 -46.8   685 5.94     110      1.00      0.200
##  9 2018-01-06 10:34:19 -22.7 -46.8   686 7.83     110      1.00      0.200
## 10 2018-01-06 10:34:20 -22.7 -46.8   685 9.80     110      1.00      0.200
## # ... with 10,940 more rows
…
# buiding the data frame
data_frame(
  dt = dt,
  lat = lat,
  lon = lon, 
  alt = ele
) %>% mutate(
  tm.prev.s = c(0, diff(dt)), # time (s) from previous track point
  tm.cum.min  = round(cumsum(tm.prev.s)/60,1) # cumulative time (min)
) -> gpx.track

print(gpx.track)

## # A tibble: 3,625 x 6
##    dt                    lat   lon   alt tm.prev.s tm.cum.min
##    <dttm>              <dbl> <dbl> <dbl>     <dbl>      <dbl>
##  1 2017-06-11 11:45:00 -22.7 -46.8   677      0         0    
##  2 2017-06-11 11:45:02 -22.7 -46.8   677      2.00      0    
##  3 2017-06-11 11:45:05 -22.7 -46.8   677      3.00      0.100
##  4 2017-06-11 11:45:08 -22.7 -46.8   677      3.00      0.100
##  5 2017-06-11 11:45:10 -22.7 -46.8   677      2.00      0.200
##  6 2017-06-11 11:45:13 -22.7 -46.8   677      3.00      0.200
##  7 2017-06-11 11:45:16 -22.7 -46.8   676      3.00      0.300
##  8 2017-06-11 11:45:18 -22.7 -46.8   676      2.00      0.300
##  9 2017-06-11 11:45:21 -22.7 -46.8   675      3.00      0.400
## 10 2017-06-11 11:45:24 -22.7 -46.8   674      3.00      0.400
## # ... with 3,615 more rows
…
